{
  "project_info": {
    "project_number": "656027735428",
    "firebase_url": "https://birthday-list-28686.firebaseio.com",
    "project_id": "birthday-list-28686",
    "storage_bucket": "birthday-list-28686.appspot.com"
  },
  "client": [
    {
      "client_info": {
        "mobilesdk_app_id": "1:656027735428:android:ac73ba3f5b505b76",
        "android_client_info": {
          "package_name": "com.gregskl.birthdaytracker"
        }
      },
      "oauth_client": [
        {
          "client_id": "656027735428-23ppk3iuajrjj4sr3kvr2pves747dink.apps.googleusercontent.com",
          "client_type": 3
        }
      ],
      "api_key": [
        {
          "current_key": "AIzaSyBDVCbSPtzL2cf6IeX0cVa3kLl3cnmeoxQ"
        }
      ],
      "services": {
        "analytics_service": {
          "status": 1
        },
        "appinvite_service": {
          "status": 1,
          "other_platform_oauth_client": []
        },
        "ads_service": {
          "status": 2
        }
      }
    }
  ],
  "configuration_version": "1"
}